FIP606 - Aula7
…
mean(mofo$scl)

[1] 1639.096

Transformando os dados

Nós podemos transformar os dados de diferentes maneiras. Ex.: log e raiz quadrada. Para transformar os dados para o logaritimo dos números usa-se a função mutate e log (). Através da função mutate() realizamos a criação/adição de uma nova variável (ou novas variaveis), que são funções de variáveis existentes, e também criamos/modificamos colunas.

mofo2 <- mofo |>
  mutate (scl2 = log(scl))
  mofo2

# A tibble: 52 × 6
   study treat   inc   scl   yld  scl2
   <dbl> <dbl> <dbl> <dbl> <dbl> <dbl>
 1     1     1    76  2194  2265  7.69
 2     1     2    53  1663  2618  7.42
 3     1     3    42  1313  2554  7.18
 4     1     4    37  1177  2632  7.07
 5     1     5    29   753  2820  6.62
 6     1     6    42  1343  2799  7.20
 7     1     7    55  1519  2503  7.33
 8     1     8    40   516  2967  6.25
 9     1     9    26   643  2965  6.47
10     1    10    18   400  3088  5.99
# ℹ 42 more rows
…
Para transformar os dados em raiz quadrada, usamos a função mutate e sqrt ().

mofo2 <- mofo |>
  mutate (scl2 = sqrt(scl))
  mofo2

# A tibble: 52 × 6
   study treat   inc   scl   yld  scl2
   <dbl> <dbl> <dbl> <dbl> <dbl> <dbl>
 1     1     1    76  2194  2265  46.8
 2     1     2    53  1663  2618  40.8
 3     1     3    42  1313  2554  36.2
 4     1     4    37  1177  2632  34.3
 5     1     5    29   753  2820  27.4
 6     1     6    42  1343  2799  36.6
 7     1     7    55  1519  2503  39.0
 8     1     8    40   516  2967  22.7
 9     1     9    26   643  2965  25.4
10     1    10    18   400  3088  20  
# ℹ 42 more rows
…
