FIP606 - Aula3dataframe
…
cars2 <- cars
speed <- cars2$speed
speed

 [1]  4  4  7  7  8  9 10 10 10 11 11 12 12 12 12 13 13 13 13 14 14 14 14 15 15
[26] 15 16 16 17 17 17 18 18 18 18 19 19 19 20 20 20 20 20 22 23 24 24 24 24 25

Para criar um dataframe de pacote, basta carregar o pacote e depois atribui-lo. Para atribuir uma função a outra, basta usar <-. Ex.: buscar em packages o pacote r4pde e carrega-lo (usando a função library), dentro do quadro de ajuda deste pacote, é possível encontrar os dataframes incorporados, como o RustSoybean. Para usar esse quadro de dados basta usar a função de atribuição.

library(r4pde)
df <- RustSoybean
df

# A tibble: 34 × 7
   epidemia latitude longitude local              planting   detection  severity
      <dbl>    <dbl>     <dbl> <chr>              <date>     <date>        <dbl>
 1       23    -23.0     -50.1 Cambara            2003-11-25 2004-02-02     24  
 2       24    -24.0     -52.4 Campo Mourao       2003-11-28 2004-02-02     21  
 3       31    -15.5     -55.2 Campo Verde        2004-11-20 2005-01-25     78  
 4        3    -13.3     -44.6 Correntina         2002-11-10 2003-01-03     85  
 5       15    -13.3     -44.6 Correntina         2003-11-28 2004-01-31     25  
 6       34    -25.4     -51.5 Guarapuava         2004-11-29 2005-03-14     32  
 7        7    -29.2     -53.7 Julio Castilhos    2002-12-15 2003-04-10     40  
 8       13    -12.1     -45.8 Luis Eduardo Maga… 2003-11-12 2004-02-15     39.2
 9       33    -12.1     -45.8 Luis Eduardo Maga… 2004-11-19 2005-01-25     55  
10        1    -23.3     -51.2 Londrina           2002-11-06 2003-02-03     45  
# ℹ 24 more rows
…
Para chamar um arquivo csv, usa-se a função read.csv. A função read.csv é usada para importar arquivos de valores separados por , e com a primeira linha dos dados com os nomes das variáveis). Também temos a função read.csv2, que assume que os dados são separados por ; e que uma vírgula é usada ao inves de um ponto decimal.

Diversas funções do pacote reader também podem ser utilizadas para importação de quadro de dados. O pacote reader faz parte da coleção de pacotes tidyverse. As funções do reader são usadas de forma semelhante as do read.table e read.csv, sendo que muitas vezes usam os mesmos argumentos. Ex: podem ser utilizadas as funções read_table,read_csv e read_csv2, ao invés das dunções do read.table.

library(tidyverse)

#using read.csv

magnesio2 <- read.csv("dados-diversos.csv")

#using read_csv
magnesio3 <- read_csv("dados-diversos.csv")
magnesio3

# A tibble: 60 × 4
   Irrigation   rep   day severity
   <chr>      <dbl> <dbl>    <dbl>
 1 Furrow         1     0     0.01
 2 Furrow         2     0     0.01
 3 Furrow         3     0     0.01
 4 Furrow         1     7     0.04
 5 Furrow         2     7     0.04
 6 Furrow         3     7     0.04
 7 Furrow         1    14     0.1 
 8 Furrow         2    14     0.1 
 9 Furrow         3    14     0.11
10 Furrow         1    21     0.11
# ℹ 50 more rows
…
Para importar planilhas google, usa a função gsheet (read_sheet), presente no pacote googlesheets4. Como esse pacote também não faz parte do conjunto tidyverse, precisa carrega-lo para usar. A função read_gsheet lê o arquivo (planilha google) a partir de uma URL (copia e cola o link da planilha desejada).

# using gsheet package

library(gsheet)
magnesio5 <- gsheet2tbl("https://docs.google.com/spreadsheets/d/1aID5Dh6PlBVCKzU1j7k-WA6zuWQWE2NhtWEgdJtt5iA/edit?usp=sharing")

survey <- gsheet2tbl("https://docs.google.com/spreadsheets/d/1aID5Dh6PlBVCKzU1j7k-WA6zuWQWE2NhtWEgdJtt5iA/edit#gid=366054269")

# no caso de ter um link da internet

fusarium <- read_csv("https://raw.githubusercontent.com/emdelponte/epidemiology-R/main/data/fusarium_banana.csv")
fusarium

# A tibble: 163 × 4
     lon   lat marker  field
   <dbl> <dbl> <chr>   <dbl>
 1 -50.8 -20.5 plantas    11
 2 -50.8 -20.5 plantas    11
 3 -50.8 -20.5 plantas    11
 4 -50.8 -20.5 plantas    11
 5 -50.8 -20.5 plantas    11
 6 -50.8 -20.5 plantas    11
 7 -50.8 -20.5 plantas    11
 8 -50.8 -20.5 plantas    11
 9 -50.8 -20.5 plantas    11
10 -50.8 -20.5 plantas    11
# ℹ 153 more rows
…
